[
  {
    "lastName": "Yang",
    "student": false,
    "geoCountryUrn": "urn:li:fs_geo:103644278",
    "maidenName": "Steve",
    "geoLocationBackfilled": false,
    "entityUrn": "urn:li:fs_profile:ACoAAAOfRBgBueG26nAvmqAGjJr-E1qfA5f9NTs",
    "headline": "I define technical directions and build teams to execute the engineering aspect of a business.",
    "summary": "I build teams, design and write software in order to execute on business decisions.\nI contribute to the C-Suite's strategy by providing technical insights and ROI metrics.",
    "industryName": "Information Technology & Services",
    "locationName": "United States",
    "geoCountryName": "United States",
    "elt": false,
    "profilePictureOriginalImage": {
      "com.linkedin.common.VectorImage": {
        "artifacts": [
          {
            "width": 675,
            "fileIdentifyingUrlPathSegment": "900_1200/0/1632691301839?m=AQI1Ht9yHUPWHAAAAX2nCLjKxXqKztCBiBPFJCupklLXbXU1q2MzEJtU&e=1639271306&v=beta&t=p48amml-ByKEIyl6aFf3mlZAtYvRzb3TTC6TyaLY_Cc",
            "expiresAt": 1639271306000,
            "height": 900
          },
          {
            "width": 337,
            "fileIdentifyingUrlPathSegment": "450_600/0/1632691301839?m=AQJZFR4eV8dRRAAAAX2nCLjLnksYKGTiwWji07AnIykH9oskARKjJUCh&e=1639271306&v=beta&t=U6CTrHIxkdg9nddvM59OVmVuwRgoM7fvAlsZ3AY9Pf0",
            "expiresAt": 1639271306000,
            "height": 450
          }
        ],
        "rootUrl": "https://www.linkedin.com/dms/C5604AQGilHVwwg6Z8A/profile-originalphoto-shrink_"
      }
    },
    "industryUrn": "urn:li:fs_industry:96",
    "firstName": "Chenyun",
    "profilePicture": {
      "displayImage": "urn:li:digitalmediaAsset:D5603AQHXgKI3T9xIeA",
      "originalImage": "urn:li:digitalmediaAsset:C5604AQGilHVwwg6Z8A",
      "photoFilterEditInfo": {
        "bottomLeft": {
          "x": -6.178632484870436e-17,
          "y": 0.8713355048859935
        },
        "saturation": 0,
        "brightness": 36,
        "vignette": 0,
        "photoFilterType": "ORIGINAL",
        "bottomRight": {
          "x": 1,
          "y": 0.8713355048859935
        },
        "topLeft": {
          "x": -6.178632484870436e-17,
          "y": 0.12214983713355039
        },
        "contrast": 45,
        "topRight": {
          "x": 1,
          "y": 0.12214983713355039
        }
      }
    },
    "geoLocation": {
      "geoUrn": "urn:li:fs_geo:90000084",
      "postalCode": "94117"
    },
    "geoLocationName": "San Francisco Bay Area",
    "location": {
      "basicLocation": {
        "countryCode": "us",
        "postalCode": "94117"
      }
    },
    "backgroundPicture": {
      "displayImage": "urn:li:digitalmediaAsset:C5616AQEmrXSP0uOi5w",
      "originalImage": "urn:li:digitalmediaAsset:C5604AQGWvHEIENqPdw",
      "photoFilterEditInfo": {
        "bottomLeft": {
          "x": 8.167157882300002e-17,
          "y": 1
        },
        "saturation": 0,
        "brightness": 0,
        "vignette": 0,
        "photoFilterType": "ORIGINAL",
        "bottomRight": {
          "x": 1,
          "y": 1
        },
        "topLeft": {
          "x": 8.167157882300002e-17,
          "y": 8.167157882300002e-17
        },
        "contrast": 0,
        "topRight": {
          "x": 1,
          "y": 8.167157882300002e-17
        }
      }
    },
    "backgroundPictureOriginalImage": {
      "com.linkedin.common.VectorImage": {
        "artifacts": [
          {
            "width": 1583,
            "fileIdentifyingUrlPathSegment": "396_1584/0/1627370423740?m=AQJrMnvS91tdDQAAAX2nCLjLX94utn1-pwzT3qddLOfDIe_XPCV2Jkmr&e=1639271306&v=beta&t=u812d4jwLDOSaj4DHBOjvQojgj9_Lq97sVAigfL4DiU",
            "expiresAt": 1639271306000,
            "height": 396
          },
          {
            "width": 799,
            "fileIdentifyingUrlPathSegment": "200_800/0/1627370423740?m=AQKzPJf-iSJK7wAAAX2nCLjLrQM4AYwL8ANcancHHUQilXrA-yKN3dwu&e=1639271306&v=beta&t=9Juo0IGkRiqjdoLZ_Z-v_otGp83-hfDXifi7lMYULRw",
            "expiresAt": 1639271306000,
            "height": 200
          }
        ],
        "rootUrl": "https://www.linkedin.com/dms/C5604AQGWvHEIENqPdw/profile-originalbackgroundimage-shrink_"
      }
    },
    "displayPictureUrl": "https://media-exp1.licdn.com/dms/image/D5603AQHXgKI3T9xIeA/profile-displayphoto-shrink_",
    "img_100_100": "100_100/0/1632691301282?e=1644451200&v=beta&t=nPyKX9C5rXP-RGCnDjP364JXW_aCYJtG6-Dd85MClVk",
    "img_200_200": "200_200/0/1632691301282?e=1644451200&v=beta&t=apjcivjzVSqL750nexYRMTS0qdMX747RRSm9z5ad7XM",
    "img_400_400": "400_400/0/1632691301282?e=1644451200&v=beta&t=9q4_uOYCrPB6VCe4cT8Tz19WeKLRHU7RNT-nxzIt16s",
    "img_800_800": "800_800/0/1632691301282?e=1644451200&v=beta&t=5mkoLiL29cQn3WLgh3DDEtn-Zvb-jFEMjp0UQEtWMis",
    "profile_id": "ACoAAAOfRBgBueG26nAvmqAGjJr-E1qfA5f9NTs",
    "profile_urn": "urn:li:fs_miniProfile:ACoAAAOfRBgBueG26nAvmqAGjJr-E1qfA5f9NTs",
    "member_urn": "urn:li:member:60769304",
    "experience": [
      {
        "locationName": "San Jose, California, United States",
        "entityUrn": "urn:li:fs_position:(ACoAAAOfRBgBueG26nAvmqAGjJr-E1qfA5f9NTs,1793280614)",
        "geoLocationName": "San Jose, California, United States",
        "geoUrn": "urn:li:fs_geo:106233382",
        "companyName": "Turing Video Inc.",
        "timePeriod": {
          "startDate": {
            "month": 6,
            "year": 2021
          }
        },
        "company": {
          "employeeCountRange": {
            "start": 51,
            "end": 200
          },
          "industries": [
            "Computer Software"
          ]
        },
        "title": "Director Software Engineering",
        "region": "urn:li:fs_region:(us,0)",
        "companyUrn": "urn:li:fs_miniCompany:24793156",
        "companyLogoUrl": "https://media-exp1.licdn.com/dms/image/C4E0BAQEJAqK9sFf8ng/company-logo_"
      },
      {
        "locationName": "San Francisco Bay Area",
        "entityUrn": "urn:li:fs_position:(ACoAAAOfRBgBueG26nAvmqAGjJr-E1qfA5f9NTs,1751857709)",
        "geoLocationName": "San Francisco Bay Area",
        "geoUrn": "urn:li:fs_geo:90000084",
        "companyName": "SVLC (Silicon Valley Leadership Community)",
        "timePeriod": {
          "startDate": {
            "month": 5,
            "year": 2019
          }
        },
        "description": "SVLC is one of the fastest-growing leadership communities with hundreds of senior corporate leaders from world-class companies, top university professors, venture capitalists, and entrepreneurs in and around Silicon Valley. SVLC is committed to helping leaders and their communities grow by giving back. \n\nLink: @SVLC: https://www.linkedin.com/company/svlg/about/",
        "company": {
          "employeeCountRange": {
            "start": 2,
            "end": 10
          },
          "industries": [
            "Nonprofit Organization Management"
          ]
        },
        "title": "Associate board Member",
        "region": "urn:li:fs_region:(us,84)",
        "companyUrn": "urn:li:fs_miniCompany:28871880",
        "companyLogoUrl": "https://media-exp1.licdn.com/dms/image/C560BAQG14vgH2kIJhw/company-logo_"
      },
      {
        "locationName": "San Francisco Bay Area",
        "entityUrn": "urn:li:fs_position:(ACoAAAOfRBgBueG26nAvmqAGjJr-E1qfA5f9NTs,1845248733)",
        "geoLocationName": "San Francisco Bay Area",
        "geoUrn": "urn:li:fs_geo:90000084",
        "companyName": "Fetch Robotics",
        "timePeriod": {
          "endDate": {
            "month": 5,
            "year": 2021
          },
          "startDate": {
            "month": 8,
            "year": 2019
          }
        },
        "description": "Business is acquired by Zebra: https://bit.ly/fetch-zebra",
        "company": {
          "employeeCountRange": {
            "start": 51,
            "end": 200
          },
          "industries": [
            "Logistics and Supply Chain"
          ]
        },
        "title": "Sr. Software Engineering Manager",
        "region": "urn:li:fs_region:(us,84)",
        "companyUrn": "urn:li:fs_miniCompany:4816801",
        "companyLogoUrl": "https://media-exp1.licdn.com/dms/image/C4E0BAQFf4Lf05VenpQ/company-logo_"
      },
      {
        "locationName": "San Francisco Bay Area",
        "entityUrn": "urn:li:fs_position:(ACoAAAOfRBgBueG26nAvmqAGjJr-E1qfA5f9NTs,1845244982)",
        "geoLocationName": "San Francisco Bay Area",
        "geoUrn": "urn:li:fs_geo:90000084",
        "companyName": "Fetch Robotics",
        "timePeriod": {
          "endDate": {
            "month": 7,
            "year": 2019
          },
          "startDate": {
            "month": 1,
            "year": 2019
          }
        },
        "company": {
          "employeeCountRange": {
            "start": 51,
            "end": 200
          },
          "industries": [
            "Logistics and Supply Chain"
          ]
        },
        "title": "Software Engineering Manager",
        "region": "urn:li:fs_region:(us,84)",
        "companyUrn": "urn:li:fs_miniCompany:4816801",
        "companyLogoUrl": "https://media-exp1.licdn.com/dms/image/C4E0BAQFf4Lf05VenpQ/company-logo_"
      },
      {
        "locationName": "San Francisco Bay Area",
        "entityUrn": "urn:li:fs_position:(ACoAAAOfRBgBueG26nAvmqAGjJr-E1qfA5f9NTs,1343971892)",
        "geoLocationName": "San Francisco Bay Area",
        "geoUrn": "urn:li:fs_geo:90000084",
        "companyName": "Fetch Robotics",
        "timePeriod": {
          "endDate": {
            "month": 12,
            "year": 2018
          },
          "startDate": {
            "month": 2,
            "year": 2018
          }
        },
        "company": {
          "employeeCountRange": {
            "start": 51,
            "end": 200
          },
          "industries": [
            "Logistics and Supply Chain"
          ]
        },
        "title": "Software Engineer",
        "region": "urn:li:fs_region:(us,84)",
        "companyUrn": "urn:li:fs_miniCompany:4816801",
        "companyLogoUrl": "https://media-exp1.licdn.com/dms/image/C4E0BAQFf4Lf05VenpQ/company-logo_"
      }
    ],
    "education": [
      {
        "entityUrn": "urn:li:fs_education:(ACoAAAOfRBgBueG26nAvmqAGjJr-E1qfA5f9NTs,176124301)",
        "school": {
          "objectUrn": "urn:li:school:11469",
          "entityUrn": "urn:li:fs_miniSchool:11469",
          "active": true,
          "schoolName": "Zhejiang University",
          "trackingId": "7m5LFmLgSm67IK8mfP6sQQ==",
          "logoUrl": "https://media-exp1.licdn.com/dms/image/C510BAQFqHuGrMlNcfg/company-logo_"
        },
        "timePeriod": {
          "endDate": {
            "year": 2011
          },
          "startDate": {
            "year": 2006
          }
        },
        "degreeName": "BS",
        "schoolName": "Zhejiang University",
        "fieldOfStudy": "Economics",
        "schoolUrn": "urn:li:fs_miniSchool:11469"
      },
      {
        "entityUrn": "urn:li:fs_education:(ACoAAAOfRBgBueG26nAvmqAGjJr-E1qfA5f9NTs,176124279)",
        "school": {
          "objectUrn": "urn:li:school:14094",
          "entityUrn": "urn:li:fs_miniSchool:14094",
          "active": true,
          "schoolName": "Keio University",
          "trackingId": "e6KRx/hUTpiIIfXar3pgrw==",
          "logoUrl": "https://media-exp1.licdn.com/dms/image/C510BAQEp-N20jZkxAw/company-logo_"
        },
        "timePeriod": {
          "endDate": {
            "year": 2010
          },
          "startDate": {
            "year": 2009
          }
        },
        "description": "JASSO scholarship",
        "degreeName": "Keio International Program",
        "schoolName": "Keio University",
        "fieldOfStudy": "Economics",
        "schoolUrn": "urn:li:fs_miniSchool:14094"
      }
    ],
    "languages": [
      {
        "name": "Chinese",
        "proficiency": "NATIVE_OR_BILINGUAL"
      },
      {
        "name": "English",
        "proficiency": "FULL_PROFESSIONAL"
      },
      {
        "name": "Japanese",
        "proficiency": "ELEMENTARY"
      },
      {
        "name": "Spanish",
        "proficiency": "ELEMENTARY"
      }
    ],
    "publications": [],
    "certifications": [],
    "volunteer": [
      {
        "role": "Co-founder",
        "companyName": "TEDxFiveStarSquare",
        "timePeriod": {
          "endDate": {
            "month": 3,
            "year": 2011
          },
          "startDate": {
            "month": 3,
            "year": 2011
          }
        },
        "cause": "SCIENCE_AND_TECHNOLOGY",
        "description": "I designed the conference VI, developed and maintained the website.",
        "company": {
          "miniCompany": {
            "objectUrn": "urn:li:company:2069063",
            "entityUrn": "urn:li:fs_miniCompany:2069063",
            "name": "TEDxFiveStarSquare",
            "showcase": false,
            "active": true,
            "logo": {
              "com.linkedin.common.VectorImage": {
                "artifacts": [
                  {
                    "width": 200,
                    "fileIdentifyingUrlPathSegment": "200_200/0/1519900814715?e=1647475200&v=beta&t=MnLKIPrXHmTfy7wRDTN8tzo-c46eXpU7Kniy-WDEGe4",
                    "expiresAt": 1647475200000,
                    "height": 200
                  },
                  {
                    "width": 100,
                    "fileIdentifyingUrlPathSegment": "100_100/0/1519900814715?e=1647475200&v=beta&t=ws8LpN7TPhbXONIM7UJQSUUiVgMhooO6weOnUvRNYHY",
                    "expiresAt": 1647475200000,
                    "height": 100
                  },
                  {
                    "width": 400,
                    "fileIdentifyingUrlPathSegment": "400_400/0/1519900814715?e=1647475200&v=beta&t=pMYKABElXHK2Kpt8YCpV31LGaYQ6o-exwr-Opm22o3A",
                    "expiresAt": 1647475200000,
                    "height": 400
                  }
                ],
                "rootUrl": "https://media-exp1.licdn.com/dms/image/C560BAQHHV2zUJih19A/company-logo_"
              }
            },
            "universalName": "tedxfivestarsquare",
            "dashCompanyUrn": "urn:li:fsd_company:2069063",
            "trackingId": "0P9nVHgOSaSCdKWXEfLpmQ=="
          }
        },
        "companyUrn": "urn:li:fs_miniCompany:2069063"
      }
    ],
    "honors": []
  },
  {
    "summary": "Experienced product & engineering leader from startups to large multinational corporations, specialized in strategic planning, organizational management, technology architecture, product & marketing.\n\nI am hiring!\nhttps://www.amazon.jobs/en/teams/alexa-smart-home-cameras ",
    "industryName": "Computer Software",
    "lastName": "Chen",
    "locationName": "United States",
    "student": false,
    "geoCountryName": "United States",
    "geoCountryUrn": "urn:li:fs_geo:103644278",
    "geoLocationBackfilled": false,
    "elt": false,
    "industryUrn": "urn:li:fs_industry:4",
    "firstName": "Matthew",
    "entityUrn": "urn:li:fs_profile:ACoAAAB43pgBNS-iMw5ZnbyCc-K4IcR4cQSe5Vc",
    "geoLocation": {
      "geoUrn": "urn:li:fs_geo:90000084"
    },
    "geoLocationName": "San Francisco Bay Area",
    "location": {
      "basicLocation": {
        "countryCode": "us"
      }
    },
    "headline": "Amazon Alexa, ex-WeWork, ex-Netflix, ex-Goldman",
    "displayPictureUrl": "https://media-exp1.licdn.com/dms/image/C5603AQF0-EoBPjIajA/profile-displayphoto-shrink_",
    "img_100_100": "100_100/0/1548829096763?e=1644451200&v=beta&t=nJfOpZNMprGmxPsHR0L8FS8iQ9wk2ouAZRLRJvYBUlk",
    "img_200_200": "200_200/0/1548829096763?e=1644451200&v=beta&t=WqWLkuNsNwcGHMfAg74vSz5ZXbKaPDdjIl-sj9nB8Bw",
    "img_400_400": "400_400/0/1548829096763?e=1644451200&v=beta&t=4qMu0t7HQi276kqbaRaM30T5etooRC1ToeIZYrCa1Mg",
    "img_800_800": "800_800/0/1548829096763?e=1644451200&v=beta&t=jHkVlwxBfQwLin27aCf18fhVwbUH3pDjLKzDB4FrXq8",
    "profile_id": "ACoAAAB43pgBNS-iMw5ZnbyCc-K4IcR4cQSe5Vc",
    "profile_urn": "urn:li:fs_miniProfile:ACoAAAB43pgBNS-iMw5ZnbyCc-K4IcR4cQSe5Vc",
    "member_urn": "urn:li:member:7921304",
    "experience": [
      {
        "locationName": "Sunnyvale, California, United States",
        "entityUrn": "urn:li:fs_position:(ACoAAAB43pgBNS-iMw5ZnbyCc-K4IcR4cQSe5Vc,1682416116)",
        "geoLocationName": "Sunnyvale, California, United States",
        "geoUrn": "urn:li:fs_geo:104119503",
        "companyName": "Amazon",
        "timePeriod": {
          "startDate": {
            "year": 2020
          }
        },
        "description": "As Engineering Leader of Alexa SmartHome Cameras Products, I manage software engineers in global locations to launch on full stack software systems, including consumer facing mobile development, cloud and developer-facing APIs, computer-vision services and AI infrastructures. I also lead operational planning with business development and product management leads.",
        "company": {
          "employeeCountRange": {
            "start": 10001
          },
          "industries": [
            "Internet"
          ]
        },
        "title": "Engineering Leadership",
        "region": "urn:li:fs_region:(us,0)",
        "companyUrn": "urn:li:fs_miniCompany:1586",
        "companyLogoUrl": "https://media-exp1.licdn.com/dms/image/C560BAQHTvZwCx4p2Qg/company-logo_"
      },
      {
        "locationName": "Palo Alto, California, United States",
        "entityUrn": "urn:li:fs_position:(ACoAAAB43pgBNS-iMw5ZnbyCc-K4IcR4cQSe5Vc,1608935611)",
        "geoLocationName": "Palo Alto, California, United States",
        "geoUrn": "urn:li:fs_geo:101876708",
        "companyName": "SVLC (Silicon Valley Leadership Community)",
        "timePeriod": {
          "startDate": {
            "month": 2,
            "year": 2020
          }
        },
        "company": {
          "employeeCountRange": {
            "start": 2,
            "end": 10
          },
          "industries": [
            "Nonprofit Organization Management"
          ]
        },
        "title": "Member Board Of Directors",
        "region": "urn:li:fs_region:(us,0)",
        "companyUrn": "urn:li:fs_miniCompany:28871880",
        "companyLogoUrl": "https://media-exp1.licdn.com/dms/image/C560BAQG14vgH2kIJhw/company-logo_"
      },
      {
        "locationName": "Palo Alto",
        "entityUrn": "urn:li:fs_position:(ACoAAAB43pgBNS-iMw5ZnbyCc-K4IcR4cQSe5Vc,1557037477)",
        "geoLocationName": "Palo Alto",
        "companyName": "WeWork",
        "timePeriod": {
          "endDate": {
            "month": 7,
            "year": 2020
          },
          "startDate": {
            "month": 1,
            "year": 2019
          }
        },
        "description": "I manage the Data Science & Engineering teams in California, New York and China. We are building Marketplace Intelligence for sales org using Deep Learning techniques, data platform stacks like Spark, Airflow, Kubernetes, Front-end/GraphQL for application, to support strategic decision making for all sales operations in WeWork.\n\nBefore that, I built out the Machine Learning Platform function for Applied Science, through recruiting and growing the teams of containerization, scheduling (Airflow), ML model inferences and training. \n\nAs Engineering architect, I built out edge compute systems to stream events for IoT devices , on-device CV model inference framework and images, and designed architecture for embedded security, on-boarding & encryption of data at edge, as well as centralized analytics platform for Spatial Analytics",
        "company": {
          "employeeCountRange": {
            "start": 5001,
            "end": 10000
          },
          "industries": [
            "Real Estate"
          ]
        },
        "title": "Director Of Engineering",
        "companyUrn": "urn:li:fs_miniCompany:1953412",
        "companyLogoUrl": "https://media-exp1.licdn.com/dms/image/C560BAQHrSdUTzFbijw/company-logo_"
      },
      {
        "locationName": "Los Gatos, CA",
        "entityUrn": "urn:li:fs_position:(ACoAAAB43pgBNS-iMw5ZnbyCc-K4IcR4cQSe5Vc,1423340736)",
        "geoLocationName": "Los Gatos, CA",
        "companyName": "Netflix",
        "timePeriod": {
          "endDate": {
            "year": 2019
          },
          "startDate": {
            "year": 2018
          }
        },
        "description": "Leading engineering projects in Original Content Discovery, I built out the Content Management Systems (CMS) at Netflix Post-production area, including Elastic Search, Redis cachining, Cassandra as storage for all commits/edits to content post production, geo-tagging and meta data tagging for resources, which eventually supported customization for content recommendation for Netflix users browsing experience.",
        "company": {
          "employeeCountRange": {
            "start": 5001,
            "end": 10000
          },
          "industries": [
            "Entertainment"
          ]
        },
        "title": "Engineering",
        "companyUrn": "urn:li:fs_miniCompany:165158",
        "companyLogoUrl": "https://media-exp1.licdn.com/dms/image/C4E0BAQEVb0ZISWk8vQ/company-logo_"
      },
      {
        "locationName": "Redwood City, CA",
        "entityUrn": "urn:li:fs_position:(ACoAAAB43pgBNS-iMw5ZnbyCc-K4IcR4cQSe5Vc,1423342018)",
        "geoLocationName": "Redwood City, CA",
        "companyName": "WePay",
        "timePeriod": {
          "endDate": {
            "month": 11,
            "year": 2018
          },
          "startDate": {
            "month": 3,
            "year": 2017
          }
        },
        "description": "Built out the Risk, Operations and Compliance Engineering teams to 14 engineers including UI, API, Services, data & platform infrastructure. Expanded the projects to customer-facing API major upgrades, gRPC & service discovery, ELK for Developer Productivity, Risk & Fraud Operations, Financial data reconciliation, and Vendor Data Ingestion. Launched 20+ Engineering Show & Tell events as part of culture committee initiatives and platform for external blog and open-source initiatives.",
        "company": {
          "employeeCountRange": {
            "start": 201,
            "end": 500
          },
          "industries": [
            "Financial Services"
          ]
        },
        "title": "Engineering Manager",
        "companyUrn": "urn:li:fs_miniCompany:423417",
        "companyLogoUrl": "https://media-exp1.licdn.com/dms/image/C560BAQEahFu9HEahsA/company-logo_"
      }
    ],
    "education": [
      {
        "entityUrn": "urn:li:fs_education:(ACoAAAB43pgBNS-iMw5ZnbyCc-K4IcR4cQSe5Vc,514481125)",
        "school": {
          "objectUrn": "urn:li:school:17927",
          "entityUrn": "urn:li:fs_miniSchool:17927",
          "active": true,
          "schoolName": "Stanford University Graduate School of Business",
          "trackingId": "ze7hPVz5TlGQiu+1u+EIDg==",
          "logoUrl": "https://media-exp1.licdn.com/dms/image/C4D0BAQGyTHJCehyEuA/company-logo_"
        },
        "activities": "Design Thinking club",
        "timePeriod": {
          "endDate": {
            "year": 2019
          },
          "startDate": {
            "year": 2018
          }
        },
        "description": "Negotiation\nStrategic Leadership \nFinancing Innovations\nDesign Thinking and Neuroscience\nBuilding Power to Lead",
        "degreeName": "Stanford LEAD",
        "schoolName": "Stanford University Graduate School of Business",
        "fieldOfStudy": "Corporate Innovation",
        "schoolUrn": "urn:li:fs_miniSchool:17927"
      },
      {
        "courses": [
          "urn:li:fs_course:(ACoAAAB43pgBNS-iMw5ZnbyCc-K4IcR4cQSe5Vc,27)",
          "urn:li:fs_course:(ACoAAAB43pgBNS-iMw5ZnbyCc-K4IcR4cQSe5Vc,34)",
          "urn:li:fs_course:(ACoAAAB43pgBNS-iMw5ZnbyCc-K4IcR4cQSe5Vc,35)",
          "urn:li:fs_course:(ACoAAAB43pgBNS-iMw5ZnbyCc-K4IcR4cQSe5Vc,36)",
          "urn:li:fs_course:(ACoAAAB43pgBNS-iMw5ZnbyCc-K4IcR4cQSe5Vc,37)",
          "urn:li:fs_course:(ACoAAAB43pgBNS-iMw5ZnbyCc-K4IcR4cQSe5Vc,38)",
          "urn:li:fs_course:(ACoAAAB43pgBNS-iMw5ZnbyCc-K4IcR4cQSe5Vc,55)"
        ],
        "projects": [
          "urn:li:fs_project:(ACoAAAB43pgBNS-iMw5ZnbyCc-K4IcR4cQSe5Vc,28)"
        ],
        "entityUrn": "urn:li:fs_education:(ACoAAAB43pgBNS-iMw5ZnbyCc-K4IcR4cQSe5Vc,4342710)",
        "school": {
          "objectUrn": "urn:li:school:19232",
          "entityUrn": "urn:li:fs_miniSchool:19232",
          "active": true,
          "schoolName": "Carnegie Mellon University",
          "trackingId": "nRBQ/D82QamcAanuFkIHHg==",
          "logoUrl": "https://media-exp1.licdn.com/dms/image/C4E0BAQHuB0Kghi5Syw/company-logo_"
        },
        "activities": "TechbridgeWorld, Andrew Carnegie Fund",
        "description": "Research Assistant, Cylab\n- Design and implemented user interruption model for online activity detector\n\nTech Bridge World, Marketing Coordinator\n- Designed and implemented user surveys as well as website performance evaluation matrix for online Robotics courses.\n\nAndrew Carnegie Fund, Telemarketer\n- Collected 4000+ USD credit card and checks donations in a month through cold calling alumni and parents in all U.S. states.",
        "degreeName": "Master of Science",
        "schoolName": "Carnegie Mellon University",
        "fieldOfStudy": "Information Systems Management",
        "schoolUrn": "urn:li:fs_miniSchool:19232"
      },
      {
        "courses": [
          "urn:li:fs_course:(ACoAAAB43pgBNS-iMw5ZnbyCc-K4IcR4cQSe5Vc,92)"
        ],
        "entityUrn": "urn:li:fs_education:(ACoAAAB43pgBNS-iMw5ZnbyCc-K4IcR4cQSe5Vc,31381911)",
        "school": {
          "objectUrn": "urn:li:school:11319",
          "entityUrn": "urn:li:fs_miniSchool:11319",
          "active": true,
          "schoolName": "Shanghai Jiao Tong University",
          "trackingId": "J8yTntNwSRyVQUfS3SZIcQ==",
          "logoUrl": "https://media-exp1.licdn.com/dms/image/C4E0BAQFkNUM4pr0xcg/company-logo_"
        },
        "activities": "http://www.teccultures.org, Campus Media Center, Center of Quality Development, Students Union Association",
        "description": "- Exchange studied in Hamburg, Germany in 2000\n- Served as vice-president of School Students Association, in charge of public relations and recruiting",
        "degreeName": "Bachelor of Science",
        "schoolName": "Shanghai Jiao Tong University",
        "fieldOfStudy": "Information Engineering",
        "schoolUrn": "urn:li:fs_miniSchool:11319"
      }
    ],
    "languages": [
      {
        "name": "Chinese",
        "proficiency": "NATIVE_OR_BILINGUAL"
      },
      {
        "name": "English",
        "proficiency": "NATIVE_OR_BILINGUAL"
      },
      {
        "name": "German",
        "proficiency": "ELEMENTARY"
      },
      {
        "name": "Shanghai Dialect",
        "proficiency": "NATIVE_OR_BILINGUAL"
      }
    ],
    "publications": [],
    "certifications": [
      {
        "authority": "SANS Institute",
        "name": "GIAC Certified Web Application Defender (GWEB)",
        "timePeriod": {
          "startDate": {
            "month": 5,
            "year": 2014
          }
        },
        "licenseNumber": "438305",
        "company": {
          "objectUrn": "urn:li:company:14104",
          "entityUrn": "urn:li:fs_miniCompany:14104",
          "name": "SANS Institute",
          "showcase": false,
          "active": true,
          "logo": {
            "com.linkedin.common.VectorImage": {
              "artifacts": [
                {
                  "width": 200,
                  "fileIdentifyingUrlPathSegment": "200_200/0/1524076923596?e=1647475200&v=beta&t=2bmyh4hO1MYQ7BaAhXvDKvT7oampwtfvdL5_kG-mx6E",
                  "expiresAt": 1647475200000,
                  "height": 200
                },
                {
                  "width": 100,
                  "fileIdentifyingUrlPathSegment": "100_100/0/1524076923596?e=1647475200&v=beta&t=nEOF0gmYKRZS6qIYFl10tYQDt9zyffQzGW47cJKs7lQ",
                  "expiresAt": 1647475200000,
                  "height": 100
                },
                {
                  "width": 400,
                  "fileIdentifyingUrlPathSegment": "400_400/0/1524076923596?e=1647475200&v=beta&t=i9-5CqTFXtX_GXvEz9Xq58gKcH63zfXVNBdt6OcYaUg",
                  "expiresAt": 1647475200000,
                  "height": 400
                }
              ],
              "rootUrl": "https://media-exp1.licdn.com/dms/image/C4E0BAQFXP6rIfo489A/company-logo_"
            }
          },
          "universalName": "sans-institute",
          "dashCompanyUrn": "urn:li:fsd_company:14104",
          "trackingId": "S7eJ16t9RQGdRiYU/fOmEQ=="
        },
        "displaySource": "giac.org",
        "companyUrn": "urn:li:fs_miniCompany:14104",
        "url": "http://www.giac.org/certification/certified-web-application-defender-gweb"
      },
      {
        "authority": "Coursera",
        "name": "Machine Learning",
        "timePeriod": {
          "startDate": {
            "month": 12,
            "year": 2014
          }
        },
        "company": {
          "objectUrn": "urn:li:company:2453129",
          "entityUrn": "urn:li:fs_miniCompany:2453129",
          "name": "Coursera",
          "showcase": false,
          "active": true,
          "logo": {
            "com.linkedin.common.VectorImage": {
              "artifacts": [
                {
                  "width": 200,
                  "fileIdentifyingUrlPathSegment": "200_200/0/1608039227697?e=1647475200&v=beta&t=kocZZhyM_az0IQLkGZ8KMsphLObBZ4HVqF48KQsZlm0",
                  "expiresAt": 1647475200000,
                  "height": 200
                },
                {
                  "width": 100,
                  "fileIdentifyingUrlPathSegment": "100_100/0/1608039227697?e=1647475200&v=beta&t=4UeaIS-qnhvcYxYCkRVWFVISMQ8yY-MmhZ4Mg0tdZKc",
                  "expiresAt": 1647475200000,
                  "height": 100
                },
                {
                  "width": 400,
                  "fileIdentifyingUrlPathSegment": "400_400/0/1608039227697?e=1647475200&v=beta&t=kIwYQK5e1zxatzmuXiBDbGmiy74vts54sMA5ep-K5YI",
                  "expiresAt": 1647475200000,
                  "height": 400
                }
              ],
              "rootUrl": "https://media-exp1.licdn.com/dms/image/C4D0BAQGexnfBxeEG-g/company-logo_"
            }
          },
          "universalName": "coursera",
          "dashCompanyUrn": "urn:li:fsd_company:2453129",
          "trackingId": "NJ9xsXCESqKdyUtBGPk2mQ=="
        },
        "displaySource": "coursera.org",
        "companyUrn": "urn:li:fs_miniCompany:2453129",
        "url": "https://www.coursera.org/course/ml"
      },
      {
        "authority": "LinkedIn",
        "name": "Building Resilience",
        "timePeriod": {
          "startDate": {
            "month": 6,
            "year": 2020
          }
        },
        "company": {
          "objectUrn": "urn:li:company:1337",
          "entityUrn": "urn:li:fs_miniCompany:1337",
          "name": "LinkedIn",
          "showcase": false,
          "active": true,
          "logo": {
            "com.linkedin.common.VectorImage": {
              "artifacts": [
                {
                  "width": 200,
                  "fileIdentifyingUrlPathSegment": "200_200/0/1638831589865?e=1647475200&v=beta&t=Cg437XLr_2FhTj6Mk6TJGl6oADKRbG6Q1WF-qepUU1c",
                  "expiresAt": 1647475200000,
                  "height": 200
                },
                {
                  "width": 100,
                  "fileIdentifyingUrlPathSegment": "100_100/0/1638831589865?e=1647475200&v=beta&t=auRxdjK6Zvu7fNZH7gFRkzf9_DR7BlBdoBZQadabGTM",
                  "expiresAt": 1647475200000,
                  "height": 100
                },
                {
                  "width": 400,
                  "fileIdentifyingUrlPathSegment": "400_400/0/1638831589865?e=1647475200&v=beta&t=8OelPgmETdiEPbcy3R0n8hVMFL7h6_npYIaXcOdYCxM",
                  "expiresAt": 1647475200000,
                  "height": 400
                }
              ],
              "rootUrl": "https://media-exp1.licdn.com/dms/image/C560BAQHaVYd13rRz3A/company-logo_"
            }
          },
          "universalName": "linkedin",
          "dashCompanyUrn": "urn:li:fsd_company:1337",
          "trackingId": "PrDpFoNiTiKWaNostqVi4A=="
        },
        "displaySource": "linkedin.com",
        "companyUrn": "urn:li:fs_miniCompany:1337",
        "url": "http://www.linkedin.com/learning/building-resilience"
      },
      {
        "authority": "Coursera",
        "name": "Internet of Things & Augmented Reality Emerging Technologies",
        "timePeriod": {
          "startDate": {
            "month": 6,
            "year": 2020
          }
        },
        "licenseNumber": "W2GSVPZKZ8UF",
        "company": {
          "objectUrn": "urn:li:company:2453129",
          "entityUrn": "urn:li:fs_miniCompany:2453129",
          "name": "Coursera",
          "showcase": false,
          "active": true,
          "logo": {
            "com.linkedin.common.VectorImage": {
              "artifacts": [
                {
                  "width": 200,
                  "fileIdentifyingUrlPathSegment": "200_200/0/1608039227697?e=1647475200&v=beta&t=kocZZhyM_az0IQLkGZ8KMsphLObBZ4HVqF48KQsZlm0",
                  "expiresAt": 1647475200000,
                  "height": 200
                },
                {
                  "width": 100,
                  "fileIdentifyingUrlPathSegment": "100_100/0/1608039227697?e=1647475200&v=beta&t=4UeaIS-qnhvcYxYCkRVWFVISMQ8yY-MmhZ4Mg0tdZKc",
                  "expiresAt": 1647475200000,
                  "height": 100
                },
                {
                  "width": 400,
                  "fileIdentifyingUrlPathSegment": "400_400/0/1608039227697?e=1647475200&v=beta&t=kIwYQK5e1zxatzmuXiBDbGmiy74vts54sMA5ep-K5YI",
                  "expiresAt": 1647475200000,
                  "height": 400
                }
              ],
              "rootUrl": "https://media-exp1.licdn.com/dms/image/C4D0BAQGexnfBxeEG-g/company-logo_"
            }
          },
          "universalName": "coursera",
          "dashCompanyUrn": "urn:li:fsd_company:2453129",
          "trackingId": "a6fN1YD/TXqz1IPzcBnG7Q=="
        },
        "companyUrn": "urn:li:fs_miniCompany:2453129"
      },
      {
        "authority": "Coursera",
        "name": "Introduction to TensorFlow for Artificial Intelligence, Machine Learning, and Deep Learning",
        "timePeriod": {
          "startDate": {
            "month": 7,
            "year": 2020
          }
        },
        "licenseNumber": "PMUMYH46KNBN",
        "company": {
          "objectUrn": "urn:li:company:2453129",
          "entityUrn": "urn:li:fs_miniCompany:2453129",
          "name": "Coursera",
          "showcase": false,
          "active": true,
          "logo": {
            "com.linkedin.common.VectorImage": {
              "artifacts": [
                {
                  "width": 200,
                  "fileIdentifyingUrlPathSegment": "200_200/0/1608039227697?e=1647475200&v=beta&t=kocZZhyM_az0IQLkGZ8KMsphLObBZ4HVqF48KQsZlm0",
                  "expiresAt": 1647475200000,
                  "height": 200
                },
                {
                  "width": 100,
                  "fileIdentifyingUrlPathSegment": "100_100/0/1608039227697?e=1647475200&v=beta&t=4UeaIS-qnhvcYxYCkRVWFVISMQ8yY-MmhZ4Mg0tdZKc",
                  "expiresAt": 1647475200000,
                  "height": 100
                },
                {
                  "width": 400,
                  "fileIdentifyingUrlPathSegment": "400_400/0/1608039227697?e=1647475200&v=beta&t=kIwYQK5e1zxatzmuXiBDbGmiy74vts54sMA5ep-K5YI",
                  "expiresAt": 1647475200000,
                  "height": 400
                }
              ],
              "rootUrl": "https://media-exp1.licdn.com/dms/image/C4D0BAQGexnfBxeEG-g/company-logo_"
            }
          },
          "universalName": "coursera",
          "dashCompanyUrn": "urn:li:fsd_company:2453129",
          "trackingId": "44gHX+kySl+iuprc1AwiiA=="
        },
        "displaySource": "coursera.org",
        "companyUrn": "urn:li:fs_miniCompany:2453129",
        "url": "https://coursera.org/share/9144e572a98fb60c352fdcd04922a6d0"
      },
      {
        "authority": "Coursera",
        "name": "Natural Language Processing in TensorFlow",
        "timePeriod": {
          "startDate": {
            "month": 7,
            "year": 2020
          }
        },
        "licenseNumber": "FBMM8YBTF8E2",
        "company": {
          "objectUrn": "urn:li:company:2453129",
          "entityUrn": "urn:li:fs_miniCompany:2453129",
          "name": "Coursera",
          "showcase": false,
          "active": true,
          "logo": {
            "com.linkedin.common.VectorImage": {
              "artifacts": [
                {
                  "width": 200,
                  "fileIdentifyingUrlPathSegment": "200_200/0/1608039227697?e=1647475200&v=beta&t=kocZZhyM_az0IQLkGZ8KMsphLObBZ4HVqF48KQsZlm0",
                  "expiresAt": 1647475200000,
                  "height": 200
                },
                {
                  "width": 100,
                  "fileIdentifyingUrlPathSegment": "100_100/0/1608039227697?e=1647475200&v=beta&t=4UeaIS-qnhvcYxYCkRVWFVISMQ8yY-MmhZ4Mg0tdZKc",
                  "expiresAt": 1647475200000,
                  "height": 100
                },
                {
                  "width": 400,
                  "fileIdentifyingUrlPathSegment": "400_400/0/1608039227697?e=1647475200&v=beta&t=kIwYQK5e1zxatzmuXiBDbGmiy74vts54sMA5ep-K5YI",
                  "expiresAt": 1647475200000,
                  "height": 400
                }
              ],
              "rootUrl": "https://media-exp1.licdn.com/dms/image/C4D0BAQGexnfBxeEG-g/company-logo_"
            }
          },
          "universalName": "coursera",
          "dashCompanyUrn": "urn:li:fsd_company:2453129",
          "trackingId": "CNuFBABASHixzK2sq619gg=="
        },
        "displaySource": "coursera.org",
        "companyUrn": "urn:li:fs_miniCompany:2453129",
        "url": "https://www.coursera.org/verify/FBMM8YBTF8E2"
      },
      {
        "authority": "Coursera",
        "name": "Entrepreneurship: Growth Strategies",
        "timePeriod": {
          "startDate": {
            "month": 10,
            "year": 2020
          }
        },
        "licenseNumber": "WAZ7XU27GPM7",
        "company": {
          "objectUrn": "urn:li:company:2453129",
          "entityUrn": "urn:li:fs_miniCompany:2453129",
          "name": "Coursera",
          "showcase": false,
          "active": true,
          "logo": {
            "com.linkedin.common.VectorImage": {
              "artifacts": [
                {
                  "width": 200,
                  "fileIdentifyingUrlPathSegment": "200_200/0/1608039227697?e=1647475200&v=beta&t=kocZZhyM_az0IQLkGZ8KMsphLObBZ4HVqF48KQsZlm0",
                  "expiresAt": 1647475200000,
                  "height": 200
                },
                {
                  "width": 100,
                  "fileIdentifyingUrlPathSegment": "100_100/0/1608039227697?e=1647475200&v=beta&t=4UeaIS-qnhvcYxYCkRVWFVISMQ8yY-MmhZ4Mg0tdZKc",
                  "expiresAt": 1647475200000,
                  "height": 100
                },
                {
                  "width": 400,
                  "fileIdentifyingUrlPathSegment": "400_400/0/1608039227697?e=1647475200&v=beta&t=kIwYQK5e1zxatzmuXiBDbGmiy74vts54sMA5ep-K5YI",
                  "expiresAt": 1647475200000,
                  "height": 400
                }
              ],
              "rootUrl": "https://media-exp1.licdn.com/dms/image/C4D0BAQGexnfBxeEG-g/company-logo_"
            }
          },
          "universalName": "coursera",
          "dashCompanyUrn": "urn:li:fsd_company:2453129",
          "trackingId": "JwtVo6XtSOywdRzSwSeifw=="
        },
        "displaySource": "coursera.org",
        "companyUrn": "urn:li:fs_miniCompany:2453129",
        "url": "https://coursera.org/share/a062dfd95daf14fcfbcead93809c2b0b"
      },
      {
        "authority": "Coursera",
        "name": "FinTech: Foundations, Payments and Regulations",
        "timePeriod": {
          "startDate": {
            "month": 3,
            "year": 2021
          }
        },
        "licenseNumber": "6QLSD9VCWKH8",
        "company": {
          "objectUrn": "urn:li:company:2453129",
          "entityUrn": "urn:li:fs_miniCompany:2453129",
          "name": "Coursera",
          "showcase": false,
          "active": true,
          "logo": {
            "com.linkedin.common.VectorImage": {
              "artifacts": [
                {
                  "width": 200,
                  "fileIdentifyingUrlPathSegment": "200_200/0/1608039227697?e=1647475200&v=beta&t=kocZZhyM_az0IQLkGZ8KMsphLObBZ4HVqF48KQsZlm0",
                  "expiresAt": 1647475200000,
                  "height": 200
                },
                {
                  "width": 100,
                  "fileIdentifyingUrlPathSegment": "100_100/0/1608039227697?e=1647475200&v=beta&t=4UeaIS-qnhvcYxYCkRVWFVISMQ8yY-MmhZ4Mg0tdZKc",
                  "expiresAt": 1647475200000,
                  "height": 100
                },
                {
                  "width": 400,
                  "fileIdentifyingUrlPathSegment": "400_400/0/1608039227697?e=1647475200&v=beta&t=kIwYQK5e1zxatzmuXiBDbGmiy74vts54sMA5ep-K5YI",
                  "expiresAt": 1647475200000,
                  "height": 400
                }
              ],
              "rootUrl": "https://media-exp1.licdn.com/dms/image/C4D0BAQGexnfBxeEG-g/company-logo_"
            }
          },
          "universalName": "coursera",
          "dashCompanyUrn": "urn:li:fsd_company:2453129",
          "trackingId": "37dDdQ00R4qEfxlKEg5ubA=="
        },
        "displaySource": "coursera.org",
        "companyUrn": "urn:li:fs_miniCompany:2453129",
        "url": "https://www.coursera.org/account/accomplishments/certificate/6QLSD9VCWKH8"
      }
    ],
    "volunteer": [
      {
        "role": "Co-founder, Shanghai Branch",
        "companyName": "Technology and Education: Connecting Cultures, Inc. (TECC) - 501c3",
        "timePeriod": {
          "endDate": {
            "month": 7,
            "year": 2006
          },
          "startDate": {
            "month": 7,
            "year": 2004
          }
        },
        "cause": "SCIENCE_AND_TECHNOLOGY",
        "description": "co-founded TECC Shanghai branch through fund-raising, organization growth and program management. Organized education and technology programs for US college students to volunteer for IT education in rural China as well as local migrant children program in Shanghai, China.",
        "company": {
          "miniCompany": {
            "objectUrn": "urn:li:company:1545566",
            "entityUrn": "urn:li:fs_miniCompany:1545566",
            "name": "Technology and Education: Connecting Cultures, Inc. (TECC) - 501c3",
            "showcase": false,
            "active": false,
            "logo": {
              "com.linkedin.common.VectorImage": {
                "artifacts": [
                  {
                    "width": 200,
                    "fileIdentifyingUrlPathSegment": "200_200/0/1519868742761?e=1647475200&v=beta&t=J63uEHtmxqceG1q81Ctpit8qj25hR3Tre25VvsKyGqc",
                    "expiresAt": 1647475200000,
                    "height": 200
                  },
                  {
                    "width": 100,
                    "fileIdentifyingUrlPathSegment": "100_100/0/1519868742761?e=1647475200&v=beta&t=gZt-FR8QeqZnoFLnEYYCP5kcP8KWHSEYk4NxmJ8KlaY",
                    "expiresAt": 1647475200000,
                    "height": 100
                  },
                  {
                    "width": 400,
                    "fileIdentifyingUrlPathSegment": "400_400/0/1519868742761?e=1647475200&v=beta&t=6TUs-7kn2Wt9TazqMOGodqT-B5oTP-8aXfXt2eLvZ4A",
                    "expiresAt": 1647475200000,
                    "height": 400
                  }
                ],
                "rootUrl": "https://media-exp1.licdn.com/dms/image/C4E0BAQGU64XNFK7H4g/company-logo_"
              }
            },
            "universalName": "technology-and-education-connecting-cultures-inc.-tecc---501c3",
            "dashCompanyUrn": "urn:li:fsd_company:1545566",
            "trackingId": "kWH0zIe8Q2+VdDsw2ew+Yg=="
          }
        },
        "companyUrn": "urn:li:fs_miniCompany:1545566"
      }
    ],
    "honors": []
  },
  {
    "summary": "10 years experience in Engineering ,Product & Sales leadership recruiting in Tech industry across US and APAC. Used to work at LinkedIn, Robert Walters , Hudson as Senior Sales Manager, Top recruiter and Career Mentor. Solid track record in each field including recruiting, business development and account management.  Recruited and Managed high caliber team to smash target consistently. \n\nAbility to help organizations quickly ramp up hiring successful team,  access global talents and build up productive recruiting process.",
    "industryName": "Information Technology & Services",
    "lastName": "Li",
    "locationName": "United States",
    "student": false,
    "geoCountryName": "United States",
    "geoCountryUrn": "urn:li:fs_geo:103644278",
    "geoLocationBackfilled": false,
    "elt": false,
    "birthDate": {
      "month": 11,
      "day": 11
    },
    "industryUrn": "urn:li:fs_industry:96",
    "firstName": "Max",
    "entityUrn": "urn:li:fs_profile:ACoAAAwluzIB7q58ft1r0lJobCdLU0IQPCvJacM",
    "geoLocation": {
      "geoUrn": "urn:li:fs_geo:90000084"
    },
    "geoLocationName": "San Francisco Bay Area",
    "location": {
      "basicLocation": {
        "countryCode": "us"
      }
    },
    "headline": "Senior Director, Global Talent at Turing AI ( We are Hiring!!) , Founder of SVLC, 21000+ LinkedIn Connections",
    "displayPictureUrl": "https://media-exp1.licdn.com/dms/image/C5603AQHqZJvSWI0TOw/profile-displayphoto-shrink_",
    "img_100_100": "100_100/0/1563240348090?e=1644451200&v=beta&t=ogj7XOqtPU3DwbAgFS6DEm4r9bPv3WdCFg_l367vTuI",
    "img_200_200": "200_200/0/1563240348090?e=1644451200&v=beta&t=qa-Lxh1H3jRO63GQmaAUQuUnEA6QOLKEKu7OEYos_Fw",
    "img_400_400": "400_400/0/1563240348090?e=1644451200&v=beta&t=Y9uhfhxb_t2RL_QgrtVrjNasQU1N6_fD8eXdvX6Pm3U",
    "img_800_800": "800_800/0/1563240348090?e=1644451200&v=beta&t=s4Lbo2Y8m-GA0RwGCLBnRd-rDF6K7syBlCHg9LWAeoM",
    "profile_id": "ACoAAAwluzIB7q58ft1r0lJobCdLU0IQPCvJacM",
    "profile_urn": "urn:li:fs_miniProfile:ACoAAAwluzIB7q58ft1r0lJobCdLU0IQPCvJacM",
    "member_urn": "urn:li:member:203799346",
    "experience": [
      {
        "locationName": "San Francisco Bay Area",
        "entityUrn": "urn:li:fs_position:(ACoAAAwluzIB7q58ft1r0lJobCdLU0IQPCvJacM,1757438982)",
        "geoLocationName": "San Francisco Bay Area",
        "geoUrn": "urn:li:fs_geo:90000084",
        "companyName": "Turing AI ",
        "timePeriod": {
          "startDate": {
            "month": 4,
            "year": 2021
          }
        },
        "description": "- Joined TuringAI as first global recruiting employee. \n- Managed and led a hyper-growth global recruiting team . \n- Headcount & Hiring planning through comprehensive competitors talent strategy research in AI/CV industry \n- Presented to Executives team global market & talent insights to guide company business directions. \n- Built a over 100 VP/Director talents pipeline for future growth . \n- Ramped up with lighting speed, scaled global employee 300% in half year with Zero recruiting fee .\n- On boarded new ATS tool and designed a automated& seamless recruiting & onboarding process with HR team.\n- Worked with marketing team to Launch brand new Career Page, including design, interviews and contents. \n- 100% Hiring Manager satisfaction rate, 100%  recruiting plan achievement \n\nWe are actively hiring for : Software Engineers, Computer Vision Engineers, Product Managers and Sales. \nCheck out our products :\nhttps://turing.ai/\nCheck out openings :\nhttps://turing.ai/careers",
        "company": {
          "employeeCountRange": {
            "start": 51,
            "end": 200
          },
          "industries": [
            "Computer Software"
          ]
        },
        "title": "Senior Director, Global Talent  ( We are hiring! )",
        "region": "urn:li:fs_region:(us,84)",
        "companyUrn": "urn:li:fs_miniCompany:24793156",
        "companyLogoUrl": "https://media-exp1.licdn.com/dms/image/C4E0BAQEJAqK9sFf8ng/company-logo_"
      },
      {
        "locationName": "San Francisco Bay Area",
        "entityUrn": "urn:li:fs_position:(ACoAAAwluzIB7q58ft1r0lJobCdLU0IQPCvJacM,1527343527)",
        "geoLocationName": "San Francisco Bay Area",
        "geoUrn": "urn:li:fs_geo:90000084",
        "companyName": "SVLC (Silicon Valley Leadership Community)",
        "timePeriod": {
          "startDate": {
            "month": 1,
            "year": 2019
          }
        },
        "description": "I founded SVLC in 2019 from scratch. SVLC is a Asian Leaders community. \nMission: Foster a community of AAPI leaders globally and create opportunities for world-class AAPI leaders in technology industry to connect with each other, to elevate underrepresented AAPI leaders and executives in both for profit and non-for-profit corporations, and to bring innovative thinking into their leadership impact. The ultimate goals are to bring prosperity, equity and belonging to AAPI community, infuse diverse perspectives into senior management and leadership teams in today and future corporations, and to drive long term sustainable social and economical impact in the community.\n\nAbout Us\nSVLC is the world's largest American Chinese Leadership Community with hundreds of senior corporate leaders, including distinguished executives, directors and managers from world-class companies, top university professors, venture capitalists, professionals holding MBAs from top business schools and Entrepreneurs in and around Silicon Valley. SVLC is one of the fastest growing leadership communities with the mission and commitment to help leaders grow. https://svlc.tech/",
        "company": {
          "employeeCountRange": {
            "start": 2,
            "end": 10
          },
          "industries": [
            "Nonprofit Organization Management"
          ]
        },
        "title": "Founder/ Member Board Of Directors",
        "region": "urn:li:fs_region:(us,84)",
        "companyUrn": "urn:li:fs_miniCompany:28871880",
        "companyLogoUrl": "https://media-exp1.licdn.com/dms/image/C560BAQG14vgH2kIJhw/company-logo_"
      },
      {
        "locationName": "San Francisco Bay Area",
        "entityUrn": "urn:li:fs_position:(ACoAAAwluzIB7q58ft1r0lJobCdLU0IQPCvJacM,1775291658)",
        "geoLocationName": "San Francisco Bay Area",
        "geoUrn": "urn:li:fs_geo:90000084",
        "companyName": "IntelliPro Group",
        "timePeriod": {
          "endDate": {
            "month": 4,
            "year": 2021
          },
          "startDate": {
            "month": 1,
            "year": 2019
          }
        },
        "description": "- First full time executive recruiting & Business Development Leader \n- 2 + Million USD Revenue generation in 2 years \n- 210% + attainment 2 years in a row \n- Signed nearly 100 clients and met over 1000 engineering executives",
        "company": {
          "employeeCountRange": {
            "start": 201,
            "end": 500
          },
          "industries": [
            "Staffing and Recruiting"
          ]
        },
        "title": "Director Of Recruiting & Strategic Partnerships ",
        "region": "urn:li:fs_region:(us,84)",
        "companyUrn": "urn:li:fs_miniCompany:3580297",
        "companyLogoUrl": "https://media-exp1.licdn.com/dms/image/C560BAQFU8TadJpPPlA/company-logo_"
      },
      {
        "locationName": "San Francisco Bay Area/ Shanghai/Beijing",
        "geoUrn": "urn:li:fs_geo:90000084",
        "companyName": "LinkedIn",
        "description": "- Account management for Consumer Segments (Over 100 clients )\n- Delivered added-value to clients including monthly LinkedIn Training and Seminar \n- Help develop client's talent strategy for global & local talent acquisition use big data & analysis\n- 2016 Rookie of the Year Winner\n- 2016 President Club Winner ",
        "title": "Senior Enterprise Account Manager (LTS)",
        "companyUrn": "urn:li:fs_miniCompany:1337",
        "honors": [
          "urn:li:fs_honor:(ACoAAAwluzIB7q58ft1r0lJobCdLU0IQPCvJacM,1563008515)"
        ],
        "entityUrn": "urn:li:fs_position:(ACoAAAwluzIB7q58ft1r0lJobCdLU0IQPCvJacM,711798230)",
        "geoLocationName": "San Francisco Bay Area/ Shanghai/Beijing",
        "timePeriod": {
          "endDate": {
            "month": 6,
            "year": 2017
          },
          "startDate": {
            "month": 7,
            "year": 2015
          }
        },
        "company": {
          "employeeCountRange": {
            "start": 10001
          },
          "industries": [
            "Internet"
          ]
        },
        "region": "urn:li:fs_region:(us,84)",
        "companyLogoUrl": "https://media-exp1.licdn.com/dms/image/C560BAQHaVYd13rRz3A/company-logo_"
      },
      {
        "locationName": "Shanghai City, China",
        "entityUrn": "urn:li:fs_position:(ACoAAAwluzIB7q58ft1r0lJobCdLU0IQPCvJacM,538004546)",
        "geoLocationName": "Shanghai City, China",
        "companyName": "Hudson Global",
        "timePeriod": {
          "endDate": {
            "month": 7,
            "year": 2015
          },
          "startDate": {
            "month": 5,
            "year": 2014
          }
        },
        "description": "- Function including GM office , Marketing , Merchandising, VM, Retail Management ,Wholesale Management \n- 2015 July Asia Top 5 Sales , 2015 Shanghai Q1 top 10 Sales",
        "company": {
          "employeeCountRange": {
            "start": 1001,
            "end": 5000
          },
          "industries": [
            "Staffing and Recruiting"
          ]
        },
        "title": "Recruiting Manager",
        "companyUrn": "urn:li:fs_miniCompany:2343",
        "honors": [
          "urn:li:fs_honor:(ACoAAAwluzIB7q58ft1r0lJobCdLU0IQPCvJacM,32)"
        ],
        "companyLogoUrl": "https://media-exp1.licdn.com/dms/image/C4E0BAQEZPuijn3mTjA/company-logo_"
      }
    ],
    "education": [
      {
        "entityUrn": "urn:li:fs_education:(ACoAAAwluzIB7q58ft1r0lJobCdLU0IQPCvJacM,542863761)",
        "school": {
          "objectUrn": "urn:li:school:18487",
          "entityUrn": "urn:li:fs_miniSchool:18487",
          "active": true,
          "schoolName": "Hult International Business School",
          "trackingId": "QUFG6Tc6RSKbfrqtT8PZBQ==",
          "logoUrl": "https://media-exp1.licdn.com/dms/image/C4E0BAQE5azq4YAjFTA/company-logo_"
        },
        "timePeriod": {
          "endDate": {
            "year": 2019
          },
          "startDate": {
            "year": 2018
          }
        },
        "description": "- Received full scholarship for STEM degree ( only for distinct students )\n- Recruiting + Machine Learning Research ",
        "degreeName": "Master of Data Analytics ",
        "schoolName": "Hult International Business School",
        "fieldOfStudy": "Dual Degree",
        "schoolUrn": "urn:li:fs_miniSchool:18487"
      },
      {
        "entityUrn": "urn:li:fs_education:(ACoAAAwluzIB7q58ft1r0lJobCdLU0IQPCvJacM,490566005)",
        "school": {
          "objectUrn": "urn:li:school:18487",
          "entityUrn": "urn:li:fs_miniSchool:18487",
          "active": true,
          "schoolName": "Hult International Business School",
          "trackingId": "y5lmbnFDRMWHSdUg+ty63g==",
          "logoUrl": "https://media-exp1.licdn.com/dms/image/C4E0BAQE5azq4YAjFTA/company-logo_"
        },
        "timePeriod": {
          "endDate": {
            "year": 2018
          },
          "startDate": {
            "year": 2017
          }
        },
        "description": "• Dean’s Scholarship for Global Professional and Senior Leaders\n• Member of Tech Club and Business Analytics Club\n• Dean’s List for C semester( top student award)",
        "degreeName": "Master of Business Administration - MBA",
        "schoolName": "Hult International Business School",
        "fieldOfStudy": "International Business/ HR Management",
        "honors": [
          "urn:li:fs_honor:(ACoAAAwluzIB7q58ft1r0lJobCdLU0IQPCvJacM,82930871)"
        ],
        "degreeUrn": "urn:li:fs_degree:700",
        "schoolUrn": "urn:li:fs_miniSchool:18487"
      },
      {
        "entityUrn": "urn:li:fs_education:(ACoAAAwluzIB7q58ft1r0lJobCdLU0IQPCvJacM,412287056)",
        "school": {
          "objectUrn": "urn:li:school:18484",
          "entityUrn": "urn:li:fs_miniSchool:18484",
          "active": true,
          "schoolName": "Harvard Business School",
          "trackingId": "7DlMsy3DRim/vJwlDBSvjw==",
          "logoUrl": "https://media-exp1.licdn.com/dms/image/C510BAQEKJxr8wtbcDA/company-logo_"
        },
        "activities": "Explore how entrepreneurship and innovation tackle complex social problems in emerging economies.",
        "timePeriod": {
          "endDate": {
            "year": 2017
          },
          "startDate": {
            "year": 2017
          }
        },
        "fieldOfStudyUrn": "urn:li:fs_fieldOfStudy:101407",
        "degreeName": "Certificate in Entrepreneurship in Emerging Economies",
        "schoolName": "Harvard Business School",
        "fieldOfStudy": "Business/Commerce, General",
        "schoolUrn": "urn:li:fs_miniSchool:18484"
      }
    ],
    "languages": [
      {
        "name": "English",
        "proficiency": "NATIVE_OR_BILINGUAL"
      },
      {
        "name": "Mandarin",
        "proficiency": "NATIVE_OR_BILINGUAL"
      }
    ],
    "publications": [],
    "certifications": [
      {
        "authority": "Harvard Business School",
        "name": "Entrepreneurship in Emerging Economies - Harvard Business School ",
        "timePeriod": {
          "endDate": {
            "month": 12,
            "year": 2025
          },
          "startDate": {
            "month": 2,
            "year": 2017
          }
        },
        "licenseNumber": "SW47x",
        "company": {
          "objectUrn": "urn:li:company:4867",
          "entityUrn": "urn:li:fs_miniCompany:4867",
          "name": "Harvard Business School",
          "showcase": false,
          "active": true,
          "logo": {
            "com.linkedin.common.VectorImage": {
              "artifacts": [
                {
                  "width": 200,
                  "fileIdentifyingUrlPathSegment": "200_200/0/1519855921327?e=1647475200&v=beta&t=SFPhmakJmHlrlqHctryg-_WEKVd0qv7F_DxbUnoUhbg",
                  "expiresAt": 1647475200000,
                  "height": 200
                },
                {
                  "width": 100,
                  "fileIdentifyingUrlPathSegment": "100_100/0/1519855921327?e=1647475200&v=beta&t=i0B_wDMMZ78cYWbfkoD7ogw-BmFR_G6TXJ2JU-JxXYY",
                  "expiresAt": 1647475200000,
                  "height": 100
                },
                {
                  "width": 400,
                  "fileIdentifyingUrlPathSegment": "400_400/0/1519855921327?e=1647475200&v=beta&t=GDqnYIVYYOFVYfhLU069ro6uNP8ASZvAUmmEwo_Kn5M",
                  "expiresAt": 1647475200000,
                  "height": 400
                }
              ],
              "rootUrl": "https://media-exp1.licdn.com/dms/image/C510BAQEKJxr8wtbcDA/company-logo_"
            }
          },
          "universalName": "harvard-business-school",
          "dashCompanyUrn": "urn:li:fsd_company:4867",
          "trackingId": "VtuM49f1QqiaPdOIZEICgg=="
        },
        "displaySource": "edx.org",
        "companyUrn": "urn:li:fs_miniCompany:4867",
        "url": "https://courses.edx.org/certificates/2470d0f740234b1cb54e62425a5ff2a4"
      },
      {
        "authority": "LinkedIn",
        "name": "Becoming Head of Sales: Developing Your Playbook",
        "timePeriod": {
          "startDate": {
            "month": 11,
            "year": 2018
          }
        },
        "company": {
          "objectUrn": "urn:li:company:1337",
          "entityUrn": "urn:li:fs_miniCompany:1337",
          "name": "LinkedIn",
          "showcase": false,
          "active": true,
          "logo": {
            "com.linkedin.common.VectorImage": {
              "artifacts": [
                {
                  "width": 200,
                  "fileIdentifyingUrlPathSegment": "200_200/0/1638831589865?e=1647475200&v=beta&t=Cg437XLr_2FhTj6Mk6TJGl6oADKRbG6Q1WF-qepUU1c",
                  "expiresAt": 1647475200000,
                  "height": 200
                },
                {
                  "width": 100,
                  "fileIdentifyingUrlPathSegment": "100_100/0/1638831589865?e=1647475200&v=beta&t=auRxdjK6Zvu7fNZH7gFRkzf9_DR7BlBdoBZQadabGTM",
                  "expiresAt": 1647475200000,
                  "height": 100
                },
                {
                  "width": 400,
                  "fileIdentifyingUrlPathSegment": "400_400/0/1638831589865?e=1647475200&v=beta&t=8OelPgmETdiEPbcy3R0n8hVMFL7h6_npYIaXcOdYCxM",
                  "expiresAt": 1647475200000,
                  "height": 400
                }
              ],
              "rootUrl": "https://media-exp1.licdn.com/dms/image/C560BAQHaVYd13rRz3A/company-logo_"
            }
          },
          "universalName": "linkedin",
          "dashCompanyUrn": "urn:li:fsd_company:1337",
          "trackingId": "DmrL169zT/iXdHu0SARVnw=="
        },
        "displaySource": "linkedin.com",
        "companyUrn": "urn:li:fs_miniCompany:1337",
        "url": "http://www.linkedin.com/learning/becoming-head-of-sales-developing-your-playbook"
      },
      {
        "authority": "Zywave",
        "name": "Sexual Harassment Prevention Training for California Managers ",
        "timePeriod": {
          "startDate": {
            "month": 2,
            "year": 2020
          }
        },
        "company": {
          "objectUrn": "urn:li:company:27853",
          "entityUrn": "urn:li:fs_miniCompany:27853",
          "name": "Zywave",
          "showcase": false,
          "active": true,
          "logo": {
            "com.linkedin.common.VectorImage": {
              "artifacts": [
                {
                  "width": 200,
                  "fileIdentifyingUrlPathSegment": "200_200/0/1591977841686?e=1647475200&v=beta&t=J3O0blefsEEeVlKICYCuYnnDt1sFq3Ilm9nc20T2cLc",
                  "expiresAt": 1647475200000,
                  "height": 200
                },
                {
                  "width": 100,
                  "fileIdentifyingUrlPathSegment": "100_100/0/1591977841686?e=1647475200&v=beta&t=9nWP5YT0EktjAk_JVSe4Ct1ebWrdt807zJmZmUUo05Q",
                  "expiresAt": 1647475200000,
                  "height": 100
                },
                {
                  "width": 400,
                  "fileIdentifyingUrlPathSegment": "400_400/0/1591977841686?e=1647475200&v=beta&t=SCapPRmJo-lHbdyCAGKsG6MHVbrCQbCNU0DZvlF2DIY",
                  "expiresAt": 1647475200000,
                  "height": 400
                }
              ],
              "rootUrl": "https://media-exp1.licdn.com/dms/image/C4D0BAQHNBEHAMn-8RA/company-logo_"
            }
          },
          "universalName": "zywave",
          "dashCompanyUrn": "urn:li:fsd_company:27853",
          "trackingId": "opLuxMSfThKpexUEIjkQHw=="
        },
        "displaySource": "ti-user-certificates.s3.amazonaws.com",
        "companyUrn": "urn:li:fs_miniCompany:27853",
        "url": "https://ti-user-certificates.s3.amazonaws.com/11ea2f45-02eb-4319-b5b3-f8d577f51371/b8f3c52d-cc4e-480e-89ad-9f2118efb742-Meng-Li-Sexual%20Harassment%20Prevention%20Training%20for%20California%20Managers%20%28English-2020%29-Certificate.pdf"
      },
      {
        "authority": "LinkedIn",
        "name": "Executive Presence on Video Conference Calls",
        "timePeriod": {
          "startDate": {
            "month": 4,
            "year": 2020
          }
        },
        "company": {
          "objectUrn": "urn:li:company:1337",
          "entityUrn": "urn:li:fs_miniCompany:1337",
          "name": "LinkedIn",
          "showcase": false,
          "active": true,
          "logo": {
            "com.linkedin.common.VectorImage": {
              "artifacts": [
                {
                  "width": 200,
                  "fileIdentifyingUrlPathSegment": "200_200/0/1638831589865?e=1647475200&v=beta&t=Cg437XLr_2FhTj6Mk6TJGl6oADKRbG6Q1WF-qepUU1c",
                  "expiresAt": 1647475200000,
                  "height": 200
                },
                {
                  "width": 100,
                  "fileIdentifyingUrlPathSegment": "100_100/0/1638831589865?e=1647475200&v=beta&t=auRxdjK6Zvu7fNZH7gFRkzf9_DR7BlBdoBZQadabGTM",
                  "expiresAt": 1647475200000,
                  "height": 100
                },
                {
                  "width": 400,
                  "fileIdentifyingUrlPathSegment": "400_400/0/1638831589865?e=1647475200&v=beta&t=8OelPgmETdiEPbcy3R0n8hVMFL7h6_npYIaXcOdYCxM",
                  "expiresAt": 1647475200000,
                  "height": 400
                }
              ],
              "rootUrl": "https://media-exp1.licdn.com/dms/image/C560BAQHaVYd13rRz3A/company-logo_"
            }
          },
          "universalName": "linkedin",
          "dashCompanyUrn": "urn:li:fsd_company:1337",
          "trackingId": "WCPnD9O1TKypFqJHoCZrcg=="
        },
        "displaySource": "linkedin.com",
        "companyUrn": "urn:li:fs_miniCompany:1337",
        "url": "http://www.linkedin.com/learning/executive-presence-on-video-conference-calls"
      },
      {
        "authority": "LinkedIn",
        "name": "Leadership in Tech",
        "timePeriod": {
          "startDate": {
            "month": 4,
            "year": 2020
          }
        },
        "licenseNumber": "AepzmmwO6gj1zGWlkS-TFHv4ukBm",
        "company": {
          "objectUrn": "urn:li:company:1337",
          "entityUrn": "urn:li:fs_miniCompany:1337",
          "name": "LinkedIn",
          "showcase": false,
          "active": true,
          "logo": {
            "com.linkedin.common.VectorImage": {
              "artifacts": [
                {
                  "width": 200,
                  "fileIdentifyingUrlPathSegment": "200_200/0/1638831589865?e=1647475200&v=beta&t=Cg437XLr_2FhTj6Mk6TJGl6oADKRbG6Q1WF-qepUU1c",
                  "expiresAt": 1647475200000,
                  "height": 200
                },
                {
                  "width": 100,
                  "fileIdentifyingUrlPathSegment": "100_100/0/1638831589865?e=1647475200&v=beta&t=auRxdjK6Zvu7fNZH7gFRkzf9_DR7BlBdoBZQadabGTM",
                  "expiresAt": 1647475200000,
                  "height": 100
                },
                {
                  "width": 400,
                  "fileIdentifyingUrlPathSegment": "400_400/0/1638831589865?e=1647475200&v=beta&t=8OelPgmETdiEPbcy3R0n8hVMFL7h6_npYIaXcOdYCxM",
                  "expiresAt": 1647475200000,
                  "height": 400
                }
              ],
              "rootUrl": "https://media-exp1.licdn.com/dms/image/C560BAQHaVYd13rRz3A/company-logo_"
            }
          },
          "universalName": "linkedin",
          "dashCompanyUrn": "urn:li:fsd_company:1337",
          "trackingId": "F6CoEaHUTXqCP7zyss2CWA=="
        },
        "displaySource": "linkedin.com",
        "companyUrn": "urn:li:fs_miniCompany:1337",
        "url": "https://www.linkedin.com/learning-login/share?forceAccount=false&redirect=https%3A%2F%2Fwww.linkedin.com%2Flearning%2Fleadership-in-tech%3Ftrk%3Dshare_ent_url"
      },
      {
        "authority": "Lii",
        "name": "LinkedIn Coach during COVID-19",
        "timePeriod": {
          "startDate": {
            "month": 5,
            "year": 2020
          }
        },
        "company": {
          "objectUrn": "urn:li:company:9202023",
          "entityUrn": "urn:li:fs_miniCompany:9202023",
          "name": "LinkedIn China 领英中国",
          "showcase": false,
          "active": true,
          "logo": {
            "com.linkedin.common.VectorImage": {
              "artifacts": [
                {
                  "width": 200,
                  "fileIdentifyingUrlPathSegment": "200_200/0/1580692913588?e=1647475200&v=beta&t=rSq7xQ8hp1ycs5FgLQ0n8RTeepalvtA-ARV-5LXuL2Q",
                  "expiresAt": 1647475200000,
                  "height": 200
                },
                {
                  "width": 100,
                  "fileIdentifyingUrlPathSegment": "100_100/0/1580692913588?e=1647475200&v=beta&t=Oj6a5MXMqyARoh_8mRqoeIfYvu5pC6VFUKjND8_Qv6E",
                  "expiresAt": 1647475200000,
                  "height": 100
                },
                {
                  "width": 400,
                  "fileIdentifyingUrlPathSegment": "400_400/0/1580692913588?e=1647475200&v=beta&t=Vsk8XsXOEDG7bGlmpkCOD4s8kkMF80UvxJM5qbvQzIU",
                  "expiresAt": 1647475200000,
                  "height": 400
                }
              ],
              "rootUrl": "https://media-exp1.licdn.com/dms/image/C510BAQGIYSLlKxpseA/company-logo_"
            }
          },
          "universalName": "linkedin-china",
          "dashCompanyUrn": "urn:li:fsd_company:9202023",
          "trackingId": "iTq+F9b0Rnav2qKfOLi9cw=="
        },
        "companyUrn": "urn:li:fs_miniCompany:9202023"
      }
    ],
    "volunteer": [
      {
        "role": "Partnerships Manager (SF Chapter)",
        "companyName": "Prospanica San Francisco",
        "timePeriod": {
          "startDate": {
            "month": 1,
            "year": 2019
          }
        },
        "cause": "EDUCATION",
        "description": "Help Prospanica community bring more great job opportunities to the international students here at San Francisco Bay Area",
        "company": {
          "miniCompany": {
            "objectUrn": "urn:li:company:27132854",
            "entityUrn": "urn:li:fs_miniCompany:27132854",
            "name": "Prospanica San Francisco ",
            "showcase": false,
            "active": true,
            "logo": {
              "com.linkedin.common.VectorImage": {
                "artifacts": [
                  {
                    "width": 200,
                    "fileIdentifyingUrlPathSegment": "200_200/0/1615569470194?e=1647475200&v=beta&t=7Rb_x0s8FUPes-izgPH5N0T8dpmcl9Ta2FGzkzFsQPQ",
                    "expiresAt": 1647475200000,
                    "height": 200
                  },
                  {
                    "width": 100,
                    "fileIdentifyingUrlPathSegment": "100_100/0/1615569470194?e=1647475200&v=beta&t=ZS8aOu9aPMzDmHlpGMS2fFcEW9-c4rHlnMGfraBYveg",
                    "expiresAt": 1647475200000,
                    "height": 100
                  },
                  {
                    "width": 400,
                    "fileIdentifyingUrlPathSegment": "400_400/0/1615569470194?e=1647475200&v=beta&t=XKpqK7TMx3aOq74_ACpJDI18FMSR_P_PiMCIjct3pQA",
                    "expiresAt": 1647475200000,
                    "height": 400
                  }
                ],
                "rootUrl": "https://media-exp1.licdn.com/dms/image/C4D0BAQHBsR-NcsCxVw/company-logo_"
              }
            },
            "universalName": "prospanica-sf",
            "dashCompanyUrn": "urn:li:fsd_company:27132854",
            "trackingId": "SlzAZxrLTxOFL1UA+ALoIA=="
          }
        },
        "companyUrn": "urn:li:fs_miniCompany:27132854"
      },
      {
        "role": "Lead Project Manager ",
        "companyName": "TechCrunch",
        "timePeriod": {
          "endDate": {
            "month": 10,
            "year": 2019
          },
          "startDate": {
            "month": 9,
            "year": 2019
          }
        },
        "cause": "SCIENCE_AND_TECHNOLOGY",
        "description": "Led the 2019 Disrupt Event volunteering activity \nFacilitates Ray Dalio presence and book signing \nCoordinated with 150 volunteers and 100 guest speakers \nSet up VC meetings & Sponsor meetings",
        "company": {
          "miniCompany": {
            "objectUrn": "urn:li:company:85562",
            "entityUrn": "urn:li:fs_miniCompany:85562",
            "name": "TechCrunch",
            "showcase": false,
            "active": true,
            "logo": {
              "com.linkedin.common.VectorImage": {
                "artifacts": [
                  {
                    "width": 200,
                    "fileIdentifyingUrlPathSegment": "200_200/0/1519835685376?e=1647475200&v=beta&t=grqfufKdZw-WlGu_fbiimS_jhWq7TnJW8aLmo2_LP2Q",
                    "expiresAt": 1647475200000,
                    "height": 200
                  },
                  {
                    "width": 100,
                    "fileIdentifyingUrlPathSegment": "100_100/0/1519835685376?e=1647475200&v=beta&t=i84ucU-GmdgtpRlY-3-0cSOu2eSN4oP42pLgVevYc2U",
                    "expiresAt": 1647475200000,
                    "height": 100
                  },
                  {
                    "width": 400,
                    "fileIdentifyingUrlPathSegment": "400_400/0/1519835685376?e=1647475200&v=beta&t=cpaxt-FDv9WJ6iCMyhX5KXP1Guzyfb_6AUUx0XVQHX8",
                    "expiresAt": 1647475200000,
                    "height": 400
                  }
                ],
                "rootUrl": "https://media-exp1.licdn.com/dms/image/C560BAQEeAGfIE7wntw/company-logo_"
              }
            },
            "universalName": "techcrunch",
            "dashCompanyUrn": "urn:li:fsd_company:85562",
            "trackingId": "sPl6Sf8sSuGAUoZxiAZUDg=="
          }
        },
        "companyUrn": "urn:li:fs_miniCompany:85562"
      }
    ],
    "honors": [
      {
        "description": "Top MBA Student Award",
        "occupation": "urn:li:fs_education:(ACoAAAwluzIB7q58ft1r0lJobCdLU0IQPCvJacM,490566005)",
        "title": "Dean’s List",
        "issueDate": {
          "month": 6,
          "year": 2018
        },
        "issuer": "Hult International business school"
      },
      {
        "occupation": "urn:li:fs_position:(ACoAAAwluzIB7q58ft1r0lJobCdLU0IQPCvJacM,711798230)",
        "title": "2015年度领英中国最佳新人， Best Rookie Of The Year - 2015",
        "issueDate": {
          "month": 1,
          "year": 2016
        },
        "issuer": "领英中国， LinkedIn China"
      },
      {
        "description": "Reward to Top Performer of Hudson Asia Pacific ",
        "occupation": "urn:li:fs_position:(ACoAAAwluzIB7q58ft1r0lJobCdLU0IQPCvJacM,538004546)",
        "title": "Hudson Asia Pacific Top 5 biller - July",
        "issueDate": {
          "month": 8,
          "year": 2014
        },
        "issuer": "Hudson Asia"
      },
      {
        "description": "China Top Biller & Most Placement ",
        "title": "China Top Biller & Most Placement & 2013 Star Of the Year",
        "issueDate": {
          "month": 1,
          "year": 2014
        },
        "issuer": "Robert Walters Shanghai"
      },
      {
        "description": "No.2 Monthly Billing , RW 2013",
        "title": "Record Month , 443k/ Month",
        "issueDate": {
          "month": 8,
          "year": 2013
        },
        "issuer": "Robert Walters China"
      },
      {
        "description": "No. 1 China Top Biller , No. 1 Shanghai Top Biller ",
        "title": "YTD China Top 1 Biller , Shanghai Office Top 1 Biller",
        "issueDate": {
          "month": 8,
          "year": 2013
        }
      },
      {
        "title": "10 Placement/ Quarter 2",
        "issueDate": {
          "month": 7,
          "year": 2013
        },
        "issuer": "Robert Walters China"
      },
      {
        "description": "- Robert Walters Star of 2012 \r\n",
        "title": "Star Of The Year 2012 , Best Rookie of 2012",
        "issueDate": {
          "month": 1,
          "year": 2013
        }
      }
    ]
  }
]
